# 3ds Max Wavefront OBJ Exporter v0.97b - (c)2007 guruware
# File Created: 20.01.2019 15:53:49

newmtl table_002
	Ns 44.000004
	Ni 1.500000
	d 1.000000
	Tr 0.000000
	Tf 1.000000 1.000000 1.000000 
	illum 2
	Ka 0.000000 0.000000 0.000000
	Kd 0.258824 0.258824 0.258824
	Ks 0.376200 0.376200 0.376200
	Ke 0.000000 0.000000 0.000000
	map_Ka table_002.png
	map_Kd table_002.png

newmtl tableleg_002
	Ns 55.000000
	Ni 1.500000
	d 1.000000
	Tr 0.000000
	Tf 1.000000 1.000000 1.000000 
	illum 2
	Ka 0.000000 0.000000 0.000000
	Kd 0.007608 0.007608 0.007608
	Ks 0.470250 0.470250 0.470250
	Ke 0.000000 0.000000 0.000000
