# 3ds Max Wavefront OBJ Exporter v0.97b - (c)2007 guruware
# File Created: 20.01.2019 16:08:16

newmtl legstable_003
	Ns 10.000000
	Ni 1.500000
	d 1.000000
	Tr 0.000000
	Tf 1.000000 1.000000 1.000000 
	illum 2
	Ka 0.439216 0.439216 0.439216
	Kd 0.439216 0.439216 0.439216
	Ks 0.000000 0.000000 0.000000
	Ke 0.000000 0.000000 0.000000
	map_Ka legstable_003.png
	map_Kd legstable_003.png

newmtl wheelstable_001
	Ns 10.000000
	Ni 1.500000
	d 1.000000
	Tr 0.000000
	Tf 1.000000 1.000000 1.000000 
	illum 2
	Ka 0.031373 0.031373 0.031373
	Kd 0.031373 0.031373 0.031373
	Ks 0.000000 0.000000 0.000000
	Ke 0.000000 0.000000 0.000000

newmtl table_003
	Ns 10.000000
	Ni 1.500000
	d 1.000000
	Tr 0.000000
	Tf 1.000000 1.000000 1.000000 
	illum 2
	Ka 0.588000 0.588000 0.588000
	Kd 0.588000 0.588000 0.588000
	Ks 0.000000 0.000000 0.000000
	Ke 0.000000 0.000000 0.000000
	map_Ka table_003.png
	map_Kd table_003.png
